<svg width="14" height="2" viewBox="0 0 14 2" fill="none" xmlns="http://www.w3.org/2000/svg">
<path fill-rule="evenodd" clip-rule="evenodd" d="M13.1534 1.47692L0.845703 1.47692L0.845703 0L13.1534 -1.07597e-06L13.1534 1.47692Z" fill="#2C2D33"/>
</svg>
